^C:\USERS\REDRAIN\DOCUMENTS\VISUAL STUDIO 2013\PROJECTS\C++ PROGRAM PROJECT\C++ PROGRAM PROJECT\DEBUG\BARGRAPH.OBJ|C:\USERS\REDRAIN\DOCUMENTS\VISUAL STUDIO 2013\PROJECTS\C++ PROGRAM PROJECT\C++ PROGRAM PROJECT\DEBUG\DIVIDEDGRAPH.OBJ|C:\USERS\REDRAIN\DOCUMENTS\VISUAL STUDIO 2013\PROJECTS\C++ PROGRAM PROJECT\C++ PROGRAM PROJECT\DEBUG\GRAPH.OBJ|C:\USERS\REDRAIN\DOCUMENTS\VISUAL STUDIO 2013\PROJECTS\C++ PROGRAM PROJECT\C++ PROGRAM PROJECT\DEBUG\LINEGRAPH.OBJ|C:\USERS\REDRAIN\DOCUMENTS\VISUAL STUDIO 2013\PROJECTS\C++ PROGRAM PROJECT\C++ PROGRAM PROJECT\DEBUG\MAIN.OBJ
C:\USERS\REDRAIN\DOCUMENTS\VISUAL STUDIO 2013\PROJECTS\C++ PROGRAM PROJECT\DEBUG\C++ PROGRAM PROJECT.ILK
C:\USERS\REDRAIN\DOCUMENTS\VISUAL STUDIO 2013\PROJECTS\C++ PROGRAM PROJECT\DEBUG\C++ PROGRAM PROJECT.EXE
C:\USERS\REDRAIN\DOCUMENTS\VISUAL STUDIO 2013\PROJECTS\C++ PROGRAM PROJECT\DEBUG\C++ PROGRAM PROJECT.PDB
^F:\BITBUCKET\SOURCE\REPOS\C-GRAPH-PROJECT\C++ PROGRAM PROJECT\C++ PROGRAM PROJECT\DEBUG\BARGRAPH.OBJ|F:\BITBUCKET\SOURCE\REPOS\C-GRAPH-PROJECT\C++ PROGRAM PROJECT\C++ PROGRAM PROJECT\DEBUG\DIVIDEDGRAPH.OBJ|F:\BITBUCKET\SOURCE\REPOS\C-GRAPH-PROJECT\C++ PROGRAM PROJECT\C++ PROGRAM PROJECT\DEBUG\GRAPH.OBJ|F:\BITBUCKET\SOURCE\REPOS\C-GRAPH-PROJECT\C++ PROGRAM PROJECT\C++ PROGRAM PROJECT\DEBUG\LINEGRAPH.OBJ|F:\BITBUCKET\SOURCE\REPOS\C-GRAPH-PROJECT\C++ PROGRAM PROJECT\C++ PROGRAM PROJECT\DEBUG\MAIN.OBJ
F:\BITBUCKET\SOURCE\REPOS\C-GRAPH-PROJECT\C++ PROGRAM PROJECT\DEBUG\C++ PROGRAM PROJECT.ILK
F:\BITBUCKET\SOURCE\REPOS\C-GRAPH-PROJECT\C++ PROGRAM PROJECT\DEBUG\C++ PROGRAM PROJECT.EXE
F:\BITBUCKET\SOURCE\REPOS\C-GRAPH-PROJECT\C++ PROGRAM PROJECT\DEBUG\C++ PROGRAM PROJECT.PDB
